<svg xmlns="http://www.w3.org/2000/svg" viewBox="0 0 29.325 29.325">
    <defs>
        <style>
            .cls-1,.cls-2{fill:none}.cls-2{stroke:#ff8b11;stroke-linecap:round;stroke-linejoin:round;stroke-miterlimit:10;stroke-width:2.3px}
        </style>
    </defs>
    <g id="noun_User_1485280" transform="translate(-2.918 -19.918)">
        <g id="Group_151" data-name="Group 151" transform="translate(2.918 19.918)">
            <path id="Rectangle_139" d="M0 0h29.325v29.325H0z" class="cls-1" data-name="Rectangle 139"/>
            <g id="Group_150" data-name="Group 150" transform="translate(5.998 5.332)">
                <path id="Path_199" d="M14.065 24.2A8.551 8.551 0 0 0 9 32.064" class="cls-2" data-name="Path 199" transform="translate(-9 -13.403)"/>
                <path id="Path_200" d="M32.465 32.064A8.551 8.551 0 0 0 27.4 24.2" class="cls-2" data-name="Path 200" transform="translate(-15.137 -13.403)"/>
                <circle id="Ellipse_10" cx="5.998" cy="5.998" r="5.998" class="cls-2" data-name="Ellipse 10" transform="translate(2.666)"/>
            </g>
        </g>
    </g>
</svg>
